<svg width="30" height="24" viewBox="0 0 30 24" fill="none" xmlns="http://www.w3.org/2000/svg">
<path d="M6.84375 18.375C7.5 18.6562 8.01562 19.125 8.39062 19.7344C8.76562 20.3438 9 21 9 21.75V22.5938C9 22.9688 8.85938 23.2969 8.57812 23.5781C8.29688 23.8594 7.96875 24 7.59375 24H1.40625C1.03125 24 0.703125 23.8594 0.421875 23.5781C0.140625 23.2969 0 22.9688 0 22.5938V21.75C0 21 0.1875 20.3438 0.5625 19.7344C0.9375 19.125 1.5 18.6562 2.15625 18.375C1.6875 17.8125 1.5 17.2031 1.5 16.5C1.5 15.7031 1.78125 15 2.39062 14.3906C2.95312 13.8281 3.65625 13.5 4.5 13.5C5.29688 13.5 6 13.8281 6.60938 14.3906C7.17188 15 7.5 15.7031 7.5 16.5C7.5 17.2031 7.26562 17.8125 6.84375 18.375ZM4.5 15C4.07812 15 3.70312 15.1875 3.42188 15.4688C3.14062 15.75 3 16.125 3 16.5C3 16.9219 3.14062 17.2969 3.42188 17.5781C3.70312 17.8594 4.07812 18 4.5 18C4.875 18 5.25 17.8594 5.53125 17.5781C5.8125 17.2969 6 16.9219 6 16.5C6 16.125 5.8125 15.75 5.53125 15.4688C5.25 15.1875 4.875 15 4.5 15ZM1.5 22.5938L7.59375 22.5L7.5 21.75C7.5 21.1406 7.26562 20.625 6.84375 20.1562C6.375 19.7344 5.85938 19.5 5.25 19.5H3.75C3.09375 19.5 2.57812 19.7344 2.15625 20.1562C1.6875 20.625 1.5 21.1406 1.5 21.75V22.5938ZM6.84375 4.875C7.5 5.15625 8.01562 5.625 8.39062 6.23438C8.76562 6.84375 9 7.5 9 8.25V9.09375C9 9.46875 8.85938 9.79688 8.57812 10.0781C8.29688 10.3594 7.96875 10.5 7.59375 10.5H1.40625C1.03125 10.5 0.703125 10.3594 0.421875 10.0781C0.140625 9.79688 0 9.46875 0 9.09375V8.25C0 7.5 0.1875 6.84375 0.5625 6.23438C0.9375 5.625 1.5 5.15625 2.15625 4.875C1.6875 4.3125 1.5 3.70312 1.5 3C1.5 2.20312 1.78125 1.5 2.39062 0.890625C2.95312 0.328125 3.65625 0 4.5 0C5.29688 0 6 0.328125 6.60938 0.890625C7.17188 1.5 7.5 2.20312 7.5 3C7.5 3.70312 7.26562 4.3125 6.84375 4.875ZM4.5 1.5C4.07812 1.5 3.70312 1.6875 3.42188 1.96875C3.14062 2.25 3 2.625 3 3C3 3.42188 3.14062 3.79688 3.42188 4.07812C3.70312 4.35938 4.07812 4.5 4.5 4.5C4.875 4.5 5.25 4.35938 5.53125 4.07812C5.8125 3.79688 6 3.42188 6 3C6 2.625 5.8125 2.25 5.53125 1.96875C5.25 1.6875 4.875 1.5 4.5 1.5ZM1.5 9.09375L7.59375 9L7.5 8.25C7.5 7.64062 7.26562 7.125 6.84375 6.65625C6.375 6.23438 5.85938 6 5.25 6H3.75C3.09375 6 2.57812 6.23438 2.15625 6.65625C1.6875 7.125 1.5 7.64062 1.5 8.25V9.09375ZM28.875 1.5C29.1562 1.5 29.4375 1.64062 29.6719 1.82812C29.8594 2.0625 30 2.34375 30 2.625V7.875C30 8.20312 29.8594 8.48438 29.6719 8.67188C29.4375 8.90625 29.1562 9 28.875 9H11.625C11.2969 9 11.0156 8.90625 10.8281 8.67188C10.5938 8.48438 10.5 8.20312 10.5 7.875V2.625C10.5 2.34375 10.5938 2.0625 10.8281 1.82812C11.0156 1.64062 11.2969 1.5 11.625 1.5H28.875ZM22.5 7.5V3H12V7.5H22.5ZM28.5 7.5V3H24V7.5H28.5ZM28.875 15C29.1562 15 29.4375 15.1406 29.6719 15.3281C29.8594 15.5625 30 15.8438 30 16.125V21.375C30 21.7031 29.8594 21.9844 29.6719 22.1719C29.4375 22.4062 29.1562 22.5 28.875 22.5H11.625C11.2969 22.5 11.0156 22.4062 10.8281 22.1719C10.5938 21.9844 10.5 21.7031 10.5 21.375V16.125C10.5 15.8438 10.5938 15.5625 10.8281 15.3281C11.0156 15.1406 11.2969 15 11.625 15H28.875ZM15 21V16.5H12V21H15ZM28.5 21V16.5H16.5V21H28.5Z" fill="#F7BE38"/>
</svg>
