<?xml version="1.0" encoding="UTF-8"?>
<svg width="50px" height="64px" viewBox="0 0 50 64" version="1.1" xmlns="http://www.w3.org/2000/svg" xmlns:xlink="http://www.w3.org/1999/xlink">
    <!-- Generator: Sketch 63.1 (92452) - https://sketch.com -->
    <title>picto-sf</title>
    <desc>Created with Sketch.</desc>
    <g id="web" stroke="none" stroke-width="1" fill="none" fill-rule="evenodd">
        <g id="enterprise1" transform="translate(-695.000000, -6745.000000)" fill="#A3A7BE" fill-rule="nonzero">
            <g id="picto-sf" transform="translate(695.000000, 6745.000000)">
                <path d="M24.9853448,29.2255135 C24.7474138,29.2255135 24.5543103,29.4183784 24.5543103,29.6579459 L24.5543103,31.3876757 C24.5543103,31.6255135 24.7474138,31.8201081 24.9853448,31.8201081 C25.2224138,31.8201081 25.4163793,31.6255135 25.4163793,31.3876757 L25.4163793,29.6579459 C25.4163793,29.4175135 25.2232759,29.2255135 24.9853448,29.2255135 Z M28.4336207,29.2255135 C28.1956897,29.2255135 28.0025862,29.4183784 28.0025862,29.6579459 L28.0025862,31.3876757 C28.0025862,31.6255135 28.1956897,31.8201081 28.4336207,31.8201081 C28.6706897,31.8201081 28.8646552,31.6255135 28.8646552,31.3876757 L28.8646552,29.6579459 C28.8646552,29.4175135 28.6715517,29.2255135 28.4336207,29.2255135 Z M21.537069,29.2255135 C21.2991379,29.2255135 21.1060345,29.4183784 21.1060345,29.6579459 L21.1060345,31.3876757 C21.1060345,31.6255135 21.2991379,31.8201081 21.537069,31.8201081 C21.7741379,31.8201081 21.9681034,31.6255135 21.9681034,31.3876757 L21.9681034,29.6579459 C21.9681034,29.4175135 21.775,29.2255135 21.537069,29.2255135 Z M18.0887931,31.8201081 C18.3258621,31.8201081 18.5198276,31.6255135 18.5198276,31.3876757 L18.5198276,29.6579459 C18.5198276,29.4183784 18.3258621,29.2255135 18.0887931,29.2255135 C17.8508621,29.2255135 17.6577586,29.4183784 17.6577586,29.6579459 L17.6577586,31.3876757 C17.6577586,31.6255135 17.8508621,31.8201081 18.0887931,31.8201081 Z M24.9853448,14.5219459 C25.2224138,14.5219459 25.4163793,14.3282162 25.4163793,14.0895135 L25.4163793,12.3597838 C25.4163793,12.1210811 25.2224138,11.9273514 24.9853448,11.9273514 C24.7474138,11.9273514 24.5543103,12.1210811 24.5543103,12.3597838 L24.5543103,14.0895135 C24.5543103,14.3282162 24.7474138,14.5219459 24.9853448,14.5219459 Z M28.4336207,14.5219459 C28.6706897,14.5219459 28.8646552,14.3282162 28.8646552,14.0895135 L28.8646552,12.3597838 C28.8646552,12.1210811 28.6706897,11.9273514 28.4336207,11.9273514 C28.1956897,11.9273514 28.0025862,12.1210811 28.0025862,12.3597838 L28.0025862,14.0895135 C28.0025862,14.3282162 28.1956897,14.5219459 28.4336207,14.5219459 Z M31.8818966,14.5219459 C32.1189655,14.5219459 32.312931,14.3282162 32.312931,14.0895135 L32.312931,12.3597838 C32.312931,12.1210811 32.1189655,11.9273514 31.8818966,11.9273514 C31.6439655,11.9273514 31.4508621,12.1210811 31.4508621,12.3597838 L31.4508621,14.0895135 C31.4508621,14.3282162 31.6439655,14.5219459 31.8818966,14.5219459 Z M21.537069,14.5219459 C21.7741379,14.5219459 21.9681034,14.3282162 21.9681034,14.0895135 L21.9681034,12.3597838 C21.9681034,12.1210811 21.7741379,11.9273514 21.537069,11.9273514 C21.2991379,11.9273514 21.1060345,12.1210811 21.1060345,12.3597838 L21.1060345,14.0895135 C21.1060345,14.3282162 21.2991379,14.5219459 21.537069,14.5219459 Z M18.0887931,14.5219459 C18.3258621,14.5219459 18.5198276,14.3282162 18.5198276,14.0895135 L18.5198276,12.3597838 C18.5198276,12.1210811 18.3258621,11.9273514 18.0887931,11.9273514 C17.8508621,11.9273514 17.6577586,12.1210811 17.6577586,12.3597838 L17.6577586,14.0895135 C17.6577586,14.3282162 17.8508621,14.5219459 18.0887931,14.5219459 Z M31.8818966,29.2255135 C31.6439655,29.2255135 31.4508621,29.4183784 31.4508621,29.6579459 L31.4508621,31.3876757 C31.4508621,31.6255135 31.6439655,31.8201081 31.8818966,31.8201081 C32.1189655,31.8201081 32.312931,31.6255135 32.312931,31.3876757 L32.312931,29.6579459 C32.312931,29.4175135 32.1198276,29.2255135 31.8818966,29.2255135 Z M24.9853448,49.1165405 C24.7474138,49.1165405 24.5543103,49.3094054 24.5543103,49.548973 L24.5543103,51.2787027 C24.5543103,51.5165405 24.7474138,51.7111351 24.9853448,51.7111351 C25.2224138,51.7111351 25.4163793,51.5165405 25.4163793,51.2787027 L25.4163793,49.548973 C25.4163793,49.3094054 25.2232759,49.1165405 24.9853448,49.1165405 Z M28.4336207,49.1165405 C28.1956897,49.1165405 28.0025862,49.3094054 28.0025862,49.548973 L28.0025862,51.2787027 C28.0025862,51.5165405 28.1956897,51.7111351 28.4336207,51.7111351 C28.6706897,51.7111351 28.8646552,51.5165405 28.8646552,51.2787027 L28.8646552,49.548973 C28.8646552,49.3094054 28.6715517,49.1165405 28.4336207,49.1165405 Z M31.8818966,49.1165405 C31.6439655,49.1165405 31.4508621,49.3094054 31.4508621,49.548973 L31.4508621,51.2787027 C31.4508621,51.5165405 31.6439655,51.7111351 31.8818966,51.7111351 C32.1189655,51.7111351 32.312931,51.5165405 32.312931,51.2787027 L32.312931,49.548973 C32.312931,49.3094054 32.1198276,49.1165405 31.8818966,49.1165405 Z M21.537069,49.1165405 C21.2991379,49.1165405 21.1060345,49.3094054 21.1060345,49.548973 L21.1060345,51.2787027 C21.1060345,51.5165405 21.2991379,51.7111351 21.537069,51.7111351 C21.7741379,51.7111351 21.9681034,51.5165405 21.9681034,51.2787027 L21.9681034,49.548973 C21.9681034,49.3094054 21.775,49.1165405 21.537069,49.1165405 Z M18.0887931,49.1165405 C17.8508621,49.1165405 17.6577586,49.3094054 17.6577586,49.548973 L17.6577586,51.2787027 C17.6577586,51.5165405 17.8508621,51.7111351 18.0887931,51.7111351 C18.3258621,51.7111351 18.5198276,51.5165405 18.5198276,51.2787027 L18.5198276,49.548973 C18.5198276,49.3094054 18.3267241,49.1165405 18.0887931,49.1165405 Z M18.0887931,27.4957838 L31.8818966,27.4957838 C32.1189655,27.4957838 32.312931,27.3011892 32.312931,27.0633514 L32.312931,18.4147027 C32.312931,18.1751351 32.1189655,17.9822703 31.8818966,17.9822703 L30.5887931,17.9822703 L30.5887931,16.684973 C30.5887931,16.4454054 30.3948276,16.2525405 30.1577586,16.2525405 L19.812931,16.2525405 C19.575,16.2525405 19.3818966,16.4454054 19.3818966,16.684973 L19.3818966,17.9822703 L18.0887931,17.9822703 C17.8508621,17.9822703 17.6577586,18.1751351 17.6577586,18.4147027 L17.6577586,27.0633514 C17.6577586,27.3011892 17.8508621,27.4957838 18.0887931,27.4957838 Z M20.2439655,18.4138378 L20.2439655,17.1165405 L29.7267241,17.1165405 L29.7267241,18.4138378 C29.7267241,18.6516757 29.9198276,18.8462703 30.1577586,18.8462703 L31.4508621,18.8462703 L31.4508621,26.6300541 L21.8413793,26.6300541 C20.9448276,23.9688649 20.2137931,21.2998919 19.6301724,18.8462703 L19.8137931,18.8462703 C20.0508621,18.8462703 20.2439655,18.6516757 20.2439655,18.4138378 Z M18.5198276,18.8462703 L18.7301724,18.8462703 C19.3,21.2774054 20.0068966,23.916973 20.8810345,26.5565405 C20.8896552,26.5816216 20.8991379,26.6058378 20.9068966,26.6309189 L18.5189655,26.6309189 L18.5189655,18.8462703 L18.5198276,18.8462703 Z M35.7612069,15.891027 L35.7612069,10.1976216 L37.0543103,10.1976216 C37.2913793,10.1976216 37.4853448,10.0038919 37.4853448,9.76518919 C37.4853448,9.52648649 37.2913793,9.33275676 37.0543103,9.33275676 L35.7612069,9.33275676 L35.7612069,7.60302703 L36.1922414,7.60302703 C36.4293103,7.60302703 36.6232759,7.4092973 36.6232759,7.17059459 C36.6232759,6.93189189 36.4293103,6.73816216 36.1922414,6.73816216 L35.7612069,6.73816216 L35.7612069,4.576 C35.7612069,4.3372973 35.5672414,4.14356757 35.3301724,4.14356757 L34.8991379,4.14356757 L34.8991379,1.11654054 C34.8991379,0.877837838 34.7051724,0.684108108 34.4681034,0.684108108 L31.0198276,0.684108108 C30.7818966,0.684108108 30.5887931,0.877837838 30.5887931,1.11654054 L30.5887931,4.14356757 L30.1577586,4.14356757 C29.9198276,4.14356757 29.7267241,4.3372973 29.7267241,4.576 L29.7267241,6.73816216 L29.2956897,6.73816216 C29.0577586,6.73816216 28.8646552,6.93189189 28.8646552,7.17059459 C28.8646552,7.4092973 29.0577586,7.60302703 29.2956897,7.60302703 L29.7267241,7.60302703 L29.7267241,9.33275676 L20.2439655,9.33275676 L20.2439655,7.60302703 L20.675,7.60302703 C20.912069,7.60302703 21.1060345,7.4092973 21.1060345,7.17059459 C21.1060345,6.93189189 20.912069,6.73816216 20.675,6.73816216 L20.2439655,6.73816216 L20.2439655,4.576 C20.2439655,4.3372973 20.05,4.14356757 19.812931,4.14356757 L19.3818966,4.14356757 L19.3818966,1.11654054 C19.3818966,0.877837838 19.187931,0.684108108 18.9508621,0.684108108 L15.5025862,0.684108108 C15.2646552,0.684108108 15.0715517,0.877837838 15.0715517,1.11654054 L15.0715517,4.14356757 L14.6405172,4.14356757 C14.4025862,4.14356757 14.2094828,4.3372973 14.2094828,4.576 L14.2094828,6.73816216 L13.7784483,6.73816216 C13.5405172,6.73816216 13.3474138,6.93189189 13.3474138,7.17059459 C13.3474138,7.4092973 13.5405172,7.60302703 13.7784483,7.60302703 L14.2094828,7.60302703 L14.2094828,9.33275676 L12.9163793,9.33275676 C12.6784483,9.33275676 12.4853448,9.52648649 12.4853448,9.76518919 C12.4853448,10.0038919 12.6784483,10.1976216 12.9163793,10.1976216 L14.2094828,10.1976216 L14.2094828,15.9057297 C5.88965517,19.9446486 0.132758621,28.4903784 0.132758621,38.3688649 C0.132758621,52.1254054 11.287931,63.3167568 25,63.3167568 C38.712069,63.3167568 49.8681034,52.1262703 49.8681034,38.3688649 C49.8681034,28.4782703 44.0965517,19.9238919 35.7612069,15.891027 Z M48.6396552,42.5288649 C47.6508621,41.9407568 46.7172414,41.2194595 45.8396552,40.3805405 C46.9206897,38.899027 47.9043103,36.9721081 48.6862069,34.4614054 C48.8939655,35.7336216 49.0060345,37.0378378 49.0060345,38.3688649 C49.0060345,39.7872432 48.8758621,41.1753514 48.6396552,42.5288649 Z M35.7612069,23.5018378 C36.562931,26.0393514 37.425,28.3589189 38.3474138,30.4553514 L38.3474138,44.1271351 C37.9534483,44.1764324 37.5465517,44.2032432 37.1241379,44.2032432 C36.6577586,44.2032432 36.2068966,44.1574054 35.7612069,44.0916757 L35.7612069,23.5018378 Z M44.6793103,40.4523243 C44.087931,41.1805405 43.4172414,41.8456216 42.6577586,42.4069189 L42.6577586,38.0644324 C43.3112069,38.9405405 43.9844828,39.7379459 44.6793103,40.4523243 Z M41.7956897,42.976 C41.0189655,43.4283243 40.1586207,43.7716757 39.2094828,43.9792432 L39.2094828,32.3122162 C40.0275862,33.9857297 40.8913793,35.4923243 41.7956897,36.8441081 L41.7956897,42.976 Z M35.7612069,44.9660541 C36.2103448,45.0248649 36.662931,45.0672432 37.1241379,45.0672432 C37.5008621,45.0672432 37.912069,45.0456216 38.3474138,44.9945946 L38.3474138,58.3749189 C37.5206897,58.9327568 36.6551724,59.4343784 35.7612069,59.8867027 L35.7612069,44.9660541 Z M39.2094828,44.8562162 C40.0258621,44.6892973 40.9034483,44.4038919 41.7956897,43.9437838 L41.7956897,55.5537297 C40.987069,56.3494054 40.1232759,57.0871351 39.2094828,57.7634595 L39.2094828,44.8562162 Z M42.6577586,43.4456216 C43.5344828,42.8817297 44.4112069,42.1344865 45.2439655,41.1468108 L45.2439655,51.2873514 C44.4793103,52.4886486 43.6155172,53.6181622 42.6577586,54.6620541 L42.6577586,43.4456216 Z M46.1060345,41.7824865 C46.8706897,42.4224865 47.6586207,42.9716757 48.4681034,43.4274595 C47.9827586,45.696 47.1810345,47.8495135 46.1060345,49.8343784 L46.1060345,41.7824865 Z M42.0568966,21.4408649 C43.1034483,22.5020541 44.05,23.6601081 44.887069,24.9003243 L41.7801724,24.9003243 C40.8284483,24.9003243 40.0560345,24.1254054 40.0560345,23.1705946 C40.0560345,22.2157838 40.8284483,21.4408649 41.7801724,21.4408649 L42.0568966,21.4408649 Z M41.2224138,20.6382703 C40.0637931,20.8951351 39.1939655,21.9321081 39.1939655,23.1705946 C39.1939655,24.6019459 40.3543103,25.7651892 41.7801724,25.7651892 L45.4439655,25.7651892 C46.7310345,27.8581622 47.7077586,30.1638919 48.3094828,32.6166486 C47.7801724,34.7139459 46.8362069,37.4555676 45.2094828,39.7483243 C40.6353448,34.9491892 37.6267241,27.0996757 35.7603448,20.4203243 L35.7603448,16.8484324 C37.7568966,17.8568649 39.5931034,19.1368649 41.2224138,20.6382703 Z M31.4508621,1.54897297 L34.037069,1.54897297 L34.037069,4.14356757 L31.4508621,4.14356757 L31.4508621,1.54897297 Z M30.5887931,5.00843243 L34.8991379,5.00843243 L34.8991379,6.73816216 L30.5887931,6.73816216 L30.5887931,5.00843243 Z M34.8991379,7.60302703 L34.8991379,9.33275676 L30.5887931,9.33275676 L30.5887931,7.60302703 L34.8991379,7.60302703 Z M34.8991379,10.1976216 L34.8991379,60.300973 C34.0603448,60.6823784 33.1982759,61.0205405 32.312931,61.3059459 L32.312931,55.603027 C32.312931,55.3634595 32.1189655,55.1705946 31.8818966,55.1705946 L30.5887931,55.1705946 L30.5887931,53.8732973 C30.5887931,53.6337297 30.3948276,53.4408649 30.1577586,53.4408649 L19.812931,53.4408649 C19.575,53.4408649 19.3818966,53.6337297 19.3818966,53.8732973 L19.3818966,55.1705946 L18.0887931,55.1705946 C17.8508621,55.1705946 17.6577586,55.3634595 17.6577586,55.603027 L17.6577586,61.1753514 L17.6577586,61.2955676 C16.7715517,61.0084324 15.9094828,60.6702703 15.0715517,60.2871351 L15.0715517,44.7922162 L17.6422414,44.7922162 C17.6474138,44.7922162 17.6525862,44.7904865 17.6577586,44.7904865 L17.6577586,46.9543784 C17.6577586,47.1922162 17.8508621,47.3868108 18.0887931,47.3868108 L31.8818966,47.3868108 C32.1189655,47.3868108 32.312931,47.1922162 32.312931,46.9543784 L32.312931,35.7111351 C32.312931,35.4715676 32.1189655,35.2787027 31.8818966,35.2787027 L30.5887931,35.2787027 L30.5887931,33.9814054 C30.5887931,33.7418378 30.3948276,33.548973 30.1577586,33.548973 L19.812931,33.548973 C19.575,33.548973 19.3818966,33.7418378 19.3818966,33.9814054 L19.3818966,35.2787027 L18.0887931,35.2787027 C17.8508621,35.2787027 17.6577586,35.4715676 17.6577586,35.7111351 L17.6577586,39.603027 C17.6525862,39.603027 17.6474138,39.603027 17.6422414,39.603027 L15.0715517,39.603027 L15.0715517,10.1976216 L34.8991379,10.1976216 Z M21.9681034,54.3057297 L24.5543103,54.3057297 L24.5543103,62.4406486 C23.6793103,62.4233514 22.8172414,62.3610811 21.9681034,62.252973 L21.9681034,54.3057297 Z M21.1060345,62.1301622 C20.2258621,61.9848649 19.3637931,61.7902703 18.5198276,61.5524324 L18.5198276,56.0354595 L19.812931,56.0354595 C20.05,56.0354595 20.2439655,55.8408649 20.2439655,55.603027 L20.2439655,54.3057297 L21.1060345,54.3057297 L21.1060345,62.1301622 Z M25.4163793,54.3057297 L28.0025862,54.3057297 L28.0025862,62.2564324 C27.1534483,62.3628108 26.2905172,62.4250811 25.4163793,62.4406486 L25.4163793,54.3057297 Z M28.8646552,54.3057297 L29.7267241,54.3057297 L29.7267241,55.603027 C29.7267241,55.8408649 29.9198276,56.0354595 30.1577586,56.0354595 L31.4508621,56.0354595 L31.4508621,61.5610811 C30.6060345,61.7971892 29.7439655,61.9917838 28.8646552,62.1353514 L28.8646552,54.3057297 Z M18.5198276,39.7604324 L18.5198276,36.1435676 L19.812931,36.1435676 C20.05,36.1435676 20.2439655,35.948973 20.2439655,35.7111351 L20.2439655,34.4138378 L21.1060345,34.4138378 L21.1060345,46.5219459 L18.5198276,46.5219459 L18.5198276,44.6348108 C19.5137931,44.2732973 20.2284483,43.3193514 20.2284483,42.1976216 C20.2284483,41.0758919 19.5146552,40.1219459 18.5198276,39.7604324 Z M30.1577586,36.1435676 L31.4508621,36.1435676 L31.4508621,42.3308108 C28.9327586,40.5777297 26.8327586,37.7349189 25.0931034,34.4138378 L29.7267241,34.4138378 L29.7267241,35.7111351 C29.7267241,35.948973 29.9198276,36.1435676 30.1577586,36.1435676 Z M28.0025862,40.3883243 L28.0025862,46.5219459 L25.4163793,46.5219459 L25.4163793,36.8095135 C26.2413793,38.1708108 27.1034483,39.3651892 28.0025862,40.3883243 Z M28.8646552,41.3094054 C29.6974138,42.1405405 30.5594828,42.835027 31.4508621,43.3885405 L31.4508621,46.5219459 L28.8646552,46.5219459 L28.8646552,41.3094054 Z M24.0896552,34.4138378 C24.2431034,34.7165405 24.3974138,35.0114595 24.5543103,35.3003243 L24.5543103,46.5219459 L21.9681034,46.5219459 L21.9681034,34.4138378 L24.0896552,34.4138378 Z M15.9336207,1.54897297 L18.5198276,1.54897297 L18.5198276,4.14356757 L15.9336207,4.14356757 L15.9336207,1.54897297 L15.9336207,1.54897297 Z M15.0715517,5.00843243 L19.3818966,5.00843243 L19.3818966,6.73816216 L15.0715517,6.73816216 L15.0715517,5.00843243 L15.0715517,5.00843243 Z M19.3818966,7.60302703 L19.3818966,9.33275676 L15.0715517,9.33275676 L15.0715517,7.60302703 L19.3818966,7.60302703 Z M14.2094828,16.8631351 L14.2094828,39.603027 L10.0853448,39.603027 C10.4965517,39.1437838 10.7465517,38.5375135 10.7465517,37.8732973 C10.7465517,36.4428108 9.5862069,35.2787027 8.16034483,35.2787027 L1.19568966,35.2787027 C2.22931034,27.2164324 7.25172414,20.3917838 14.2094828,16.8631351 Z M1.1,36.1435676 L8.15948276,36.1435676 C9.11034483,36.1435676 9.88362069,36.9184865 9.88362069,37.8732973 C9.88362069,38.8281081 9.11034483,39.603027 8.15948276,39.603027 C7.92155172,39.603027 7.72844828,39.7958919 7.72844828,40.0354595 C7.72844828,40.2732973 7.92155172,40.4678919 8.15948276,40.4678919 L17.6422414,40.4678919 C18.5931034,40.4678919 19.3663793,41.2428108 19.3663793,42.1976216 C19.3663793,43.1524324 18.5931034,43.9273514 17.6422414,43.9273514 L1.64741379,43.9273514 C1.225,42.1422703 0.994827586,40.2819459 0.994827586,38.368 C0.994827586,37.6181622 1.03275862,36.876973 1.1,36.1435676 Z M1.86896552,44.7922162 L14.2094828,44.7922162 L14.2094828,59.872 C8.23534483,56.8415135 3.6887931,51.3816216 1.86896552,44.7922162 Z" id="Shape"></path>
            </g>
        </g>
    </g>
</svg>